{
    "_links": {
        "self": {
            "href": "http://husky.lo:7878/admin/api/datagrid?pageSize=4"
        },
        "first": {
            "href": "http://husky.lo:7878/admin/api/datagrid?page=1&pageSize=4"
        },
        "last": {
            "href": "http://husky.lo:7878/admin/api/datagrid?page=3&pageSize=4"
        },
        "next": {
            "href": "http://husky.lo:7878/admin/api/datagrid?page=2&pageSize=4"
        },
        "filter": {
            "href": "http://husky.lo:7878/admin/api/datagrid?fields={fieldsList}"
        },
        "pagination": {
            "href": "http://husky.lo:7878/admin/api/datagrid?page={page}&pageSize={pageSize}"
        },
        "find": {
            "href": "http://husky.lo:7878/admin/api/datagrid/search?pageSize=4&search={searchString}{&searchFields}"
        },
        "sortable": {
            "href": "http://husky.lo:7878/admin/api/datagrid/sort?page=1&pageSize=4&sortBy={sortBy}&sortOrder={sortOrder}"
        }
    },
    "_embedded": {
        "items": [
            {
                "id": "1",
                "content1": "B Hallo 1.1",
                "content2": 23.75,
                "content3": {
                    "50x50": "http://placehold.it/50x50",
                    "170x170": "http://placehold.it/170x170"
                },
                "date": "1999-03-19T22:04:29+0100"
            },
            {
                "id": "2",
                "content1": "A Hallo 1.1",
                "content2": 23493,
                "content3": {
                    "50x50": "http://placehold.it/50x50",
                    "170x170": "http://placehold.it/170x170"
                },
                "date": "2014-02-19T22:04:40+0100"
            },
            {
                "id": "3",
                "content1": "C Hallo 1.1",
                "content2": 10953.50,
                "content3": {
                    "50x50": "http://placehold.it/50x50",
                    "170x170": "http://placehold.it/170x170"
                },
                "date": "2003-03-19T22:01:29+0100"
            },
            {
                "id": "4",
                "content1": "D Hallo 1.1",
                "content2": 3265489.99,
                "content3": {
                    "50x50": "http://placehold.it/50x50",
                    "170x170": "http://placehold.it/170x170"
                },
                "date": "2014-03-19T22:04:29+0100"
            }
        ]
    },
    "total": 12,
    "pages": 3,
    "page": 1,
    "limit": 4
}
